<?xml version="1.0" encoding="utf-8"?>
<!-- Generator: Adobe Illustrator 18.1.1, SVG Export Plug-In . SVG Version: 6.00 Build 0)  -->
<svg version="1.1" id="Layer_1" xmlns="http://www.w3.org/2000/svg" xmlns:xlink="http://www.w3.org/1999/xlink" x="0px" y="0px"
	 viewBox="0 0 17 17" enable-background="new 0 0 17 17" xml:space="preserve">
<path fill="#B2B5C0" d="M8.7,0C4,0,0.2,3.8,0.2,8.5S4,17,8.7,17s8.5-3.8,8.5-8.5S13.4,0,8.7,0z M8.7,16c-4.1,0-7.5-3.4-7.5-7.5
	S4.5,1,8.7,1s7.5,3.4,7.5,7.5S12.8,16,8.7,16z M14,9v1H8V5h1v4H14z"/>
</svg>
