<?xml version="1.0" encoding="utf-8"?>
<!-- Generator: Adobe Illustrator 18.1.1, SVG Export Plug-In . SVG Version: 6.00 Build 0)  -->
<svg version="1.1" id="Layer_1" xmlns="http://www.w3.org/2000/svg" xmlns:xlink="http://www.w3.org/1999/xlink" x="0px" y="0px"
	 viewBox="0 0 17 17" enable-background="new 0 0 17 17" xml:space="preserve">
<path fill="#BBBDC7" d="M0,2v13h17V2H0z M8.5,9.8L1.6,3h13.8L8.5,9.8z M5.8,8.5L1,13.2V3.8L5.8,8.5z M6.5,9.2l2,2l2-2l4.8,4.7H1.6
	L6.5,9.2z M11.2,8.6L16,3.8v9.5L11.2,8.6z"/>
</svg>
